{
  "$schema": "../../../node_modules/ng-packagr/ng-package.schema.json",
  "dest": "../../../dist/@silmar/ng-lazy-images",
  "deleteDestPath": false,
  "lib": {
    "entryFile": "src/public_api.ts"
  }
}