{
    "extends": "../../../tslint.json",
    "rules": {
        "no-unused-expression": false,
        "no-input-rename": false,
        "directive-selector": [
            true,
            "attribute",
            "camelCase"
        ],
        "component-selector": [
            true,
            "element",
            "lib",
            "kebab-case"
        ]
    }
}
